Distributionally Robust Portfolio Optimization · PortfolioOpt.jl
…
prices = get_test_data();
numD, numA = size(prices) # A: Assets    D: Days

(316, 6)
Calculating returns

returns_series = percentchange(prices);

315×6 TimeSeries.TimeArray{Float64, 2, Dates.Date, Matrix{Float64}} 2009-09-02 to 2010-12-01
┌────────────┬──────────────┬──────────────┬─────────────┬─────────────┬────────
│            │ AAPL         │ BA           │ DELL        │ CAT         │ EBAY  ⋯
├────────────┼──────────────┼──────────────┼─────────────┼─────────────┼────────
│ 2009-09-02 │ -0.000725953 │  -0.00758663 │  0.00920447 │ -0.00752737 │  -0.0 ⋯
│ 2009-09-03 │   0.00829398 │   0.00123967 │ -0.00651466 │   0.0351643 │  0.00 ⋯
│ 2009-09-04 │    0.0225758 │    0.0142385 │   0.0288525 │   0.0237567 │   0.0 ⋯
│ 2009-09-08 │    0.0153837 │   0.00712106 │   0.0172084 │   0.0186511 │  -0.0 ⋯
│ 2009-09-09 │    -0.010351 │    0.0208081 │ -0.00250627 │   0.0306579 │   0.0 ⋯
│ 2009-09-10 │    0.0082973 │ -0.000791609 │    0.040201 │  0.00578393 │   0.0 ⋯
│ 2009-09-11 │  -0.00231803 │    0.0170331 │  0.00241546 │  -0.0032861 │  0.00 ⋯
│ 2009-09-14 │   0.00906134 │  -0.00740019 │  -0.0126506 │  0.00494539 │   0.0 ⋯
│     ⋮      │      ⋮       │      ⋮       │      ⋮      │      ⋮      │       ⋱
│ 2010-11-22 │    0.0216151 │   0.00691933 │  0.00431655 │  0.00035727 │   0.0 ⋯
│ 2010-11-23 │   -0.0147753 │   -0.0067156 │  -0.0100287 │  -0.0163095 │  -0.0 ⋯
│ 2010-11-24 │    0.0196612 │    0.0284591 │  0.00434153 │   0.0249304 │   0.0 ⋯
│ 2010-11-26 │  0.000635324 │  -0.00932579 │  -0.0165706 │ -0.00661235 │ -0.00 ⋯
│ 2010-11-29 │   0.00593651 │  -0.00679012 │ -0.00586081 │ -0.00546773 │  -0.0 ⋯
│ 2010-11-30 │   -0.0180516 │  -0.00916718 │  -0.0257922 │   0.0111151 │  -0.0 ⋯
│ 2010-12-01 │    0.0168729 │    0.0305786 │   0.0143722 │   0.0336879 │  0.00 ⋯
└────────────┴──────────────┴──────────────┴─────────────┴─────────────┴────────
                                                  2 columns and 300 rows omitted
…
